{
  "profiles": {
    "ProjectDataCore": {
      "commandName": "Project",
      "launchBrowser": true,
      "environmentVariables": {
        "ASPNETCORE_ENVIRONMENT": "Development"
      },
      "dotnetRunMessages": true,
      "applicationUrl": "https://localhost:7111;http://localhost:5111",
      "hotReloadProfile": "aspnetcore"
    },
    "ProjectDataCore-NoComponents": {
      "commandName": "Project",
      "launchBrowser": true,
      "environmentVariables": {
        "ASPNETCORE_ENVIRONMENT": "Development",
        "DATACORE_SKIP_PREPOST_COMMANDS": "True"
      },
      "dotnetRunMessages": true,
      "applicationUrl": "https://localhost:7111;http://localhost:5111",
      "hotReloadProfile": "aspnetcore"
    },
    "IIS Express": {
      "commandName": "IISExpress",
      "launchBrowser": true,
      "environmentVariables": {
        "ASPNETCORE_ENVIRONMENT": "Development"
      }
    },
    "Docker": {
      "commandName": "Docker",
      "launchBrowser": true,
      "launchUrl": "{Scheme}://{ServiceHost}:{ServicePort}",
      "publishAllPorts": true,
      "useSSL": true
    }
  },
  "iisSettings": {
    "windowsAuthentication": false,
    "anonymousAuthentication": true,
    "iisExpress": {
      "applicationUrl": "http://localhost:24907",
      "sslPort": 44336
    }
  }
}